firefox         3.12    81      /usr/bin/firefox
firefox-esr     3.12    78.3    /usr/bin/firefox
firefox-esr     3.10    60.9    /usr/bin/firefox
chromium        3.12    83      /usr/bin/chromium-browser
chromium        3.11    81      /usr/bin/chromium-browser
chromium        3.10    77      /usr/bin/chromium-browser
chromium        3.9     72      /usr/bin/chromium-browser
chromium        3.8     68      /usr/bin/chromium-browser
chromium        3.7     61      /usr/bin/chromium-browser
chromium        3.6     57      /usr/bin/chromium-browser
